<?xml version="1.0" encoding="UTF-8" standalone="no"?>
<!-- Created with Inkscape (http://www.inkscape.org/) -->

<svg
   xmlns:dc="http://purl.org/dc/elements/1.1/"
   xmlns:cc="http://creativecommons.org/ns#"
   xmlns:rdf="http://www.w3.org/1999/02/22-rdf-syntax-ns#"
   xmlns:svg="http://www.w3.org/2000/svg"
   xmlns="http://www.w3.org/2000/svg"
   xmlns:xlink="http://www.w3.org/1999/xlink"
   xmlns:sodipodi="http://sodipodi.sourceforge.net/DTD/sodipodi-0.dtd"
   xmlns:inkscape="http://www.inkscape.org/namespaces/inkscape"
   width="1016.9647"
   height="422.39328"
   id="svg2"
   version="1.1"
   inkscape:version="0.48.0 r9654"
   sodipodi:docname="bluegrad.svg">
  <defs
     id="defs4">
    <linearGradient
       id="linearGradient3759">
      <stop
         style="stop-color:#ffffff;stop-opacity:1;"
         offset="0"
         id="stop3761" />
      <stop
         style="stop-color:#ffffff;stop-opacity:1;"
         offset="1"
         id="stop3763" />
    </linearGradient>
    <linearGradient
       inkscape:collect="always"
       xlink:href="#linearGradient3759"
       id="linearGradient3765"
       x1="104.24345"
       y1="265.66025"
       x2="-343.70245"
       y2="37.08881"
       gradientUnits="userSpaceOnUse"
       spreadMethod="reflect"
       gradientTransform="matrix(1.8828125,0,0,0.61875,-167.27678,102.58808)" />
    <linearGradient
       inkscape:collect="always"
       xlink:href="#linearGradient3759"
       id="linearGradient3784"
       x1="0"
       y1="141"
       x2="688"
       y2="141"
       gradientUnits="userSpaceOnUse" />
    <filter
       inkscape:collect="always"
       id="filter3798"
       x="-0.04181404"
       width="1.0836281"
       y="-0.1020144"
       height="1.2040288"
       color-interpolation-filters="sRGB">
      <feGaussianBlur
         inkscape:collect="always"
         stdDeviation="11.986692"
         id="feGaussianBlur3800" />
    </filter>
  </defs>
  <sodipodi:namedview
     id="base"
     pagecolor="#ffffff"
     bordercolor="#666666"
     borderopacity="1.0"
     inkscape:pageopacity="0.0"
     inkscape:pageshadow="2"
     inkscape:zoom="0.35"
     inkscape:cx="-60.363233"
     inkscape:cy="402.76907"
     inkscape:document-units="px"
     inkscape:current-layer="layer1"
     showgrid="false"
     inkscape:window-width="1280"
     inkscape:window-height="725"
     inkscape:window-x="0"
     inkscape:window-y="25"
     inkscape:window-maximized="1"
     fit-margin-top="0"
     fit-margin-left="0"
     fit-margin-right="0"
     fit-margin-bottom="0" />
  <metadata
     id="metadata7">
    <rdf:RDF>
      <cc:Work
         rdf:about="">
        <dc:format>image/svg+xml</dc:format>
        <dc:type
           rdf:resource="http://purl.org/dc/dcmitype/StillImage" />
        <dc:title />
      </cc:Work>
    </rdf:RDF>
  </metadata>
  <g
     inkscape:label="Layer 1"
     inkscape:groupmode="layer"
     id="layer1"
     transform="translate(-8.3747969,-189.16556)">
    <rect
       style="fill:none;stroke:none"
       id="rect2985"
       width="420"
       height="557.14288"
       x="80"
       y="140.93361" />
    <rect
       style="fill:none;stroke:none"
       id="rect2987"
       width="194.28571"
       height="248.57143"
       x="54.285713"
       y="78.076469" />
    <rect
       style="fill:url(#linearGradient3765);fill-opacity:1;stroke:none"
       id="rect2989"
       width="688.57141"
       height="282.85715"
       x="37.142857"
       y="218.07648" />
    <image
       xlink:href="data:image/png;base64,iVBORw0KGgoAAAANSUhEUgAAArAAAAEaCAYAAADpK2SjAAAABHNCSVQICAgIfAhkiAAAIABJREFU eJztXV224yyMpM/JcmbDs7RZzTcP5AZj9F8igYS8dGxRSM4VUrnSMf/K//zf/5ZSSvnvvyK+mvmf Yuds/9iBNPafOi9t7/2Y4yKsnKVDvd78R9slrHjl3EljXN1L++td8Mz1aFjLX+sfeSD/FWib/XrK Pzk22a+WfXIe2K/J8Vn/02Pj/eqf9ct+8vpiN3zWwySOz/qGEeP6d/0nkgMVp37W3QB7DvR2w2f9 7/rWsd66l6GGMH8ffe6rzZDX/+62yDUZ8vqfnDsqvqyZ1+2t/3r8ed37mZXX9XBSvVbywHZN/rye Vq//3e3iZ/1QiavmFiGu/GmdDiHEdYjtZkGIKzfraDPijA2e92ssOML1aHhXM3UQV9puLDgAca12 Ixl3EtfR7suDWCFsfuwFPo+0kHiIuPZ+bMTFT1zrGG+Txxs8izeQV6TBv/AMeZ2XA4711r28ta3H yXNfbd7a9nfovSZvbRtxFry5hgTIa4hMweQ1Qlx7P2k9m5jIX7MjxLXh5Lmvthhxtc1Nx4UQVwL/ EMKIE9dm58nreqqrgyAGmry7uN/8RO92TE0aIuO/pbpK16PPfX2to7pKpMWEJTAs9uYnmtdqXEJO a9hqjxFX29w0jsUaiKvuN6662oj+iGPxDuLK+8dVV9vfaS/VNT+vm59Zed3erqW6uj9rRx4gtU3L A6Rna+Q12rPFuAzklcHyBPaoroOXEHHt7fuorkhxH/AO4krb91ZdLStIJi7rqa5acSfxxrzWijs/ 5mmD8tqbA80P0uBZvIG8Ig3+hYfJuLe2OT7r7vVZ1RUhLbTfiDrV41S8EhdPXJufaC3QcqAdfo/q Oi2vwRsY8+fsJK6032mq6/U1EtgVVVfxsjZVXbU/6q6qq0RabHNfX4uproEmj5GWSCFsfqLE1YRl cCTWmNO837VVV9N6646O6mqb9/7aV3UN5zVIWqp9juqqMQT9BmbEiNjneP8NWe9nTm37O4yprvb+ 1uPkua+296uuGhnvx4RuyHoCO0t11T66o7r2fvzEtflR4wqSlmbPV10R0oIQ12p/h+rqiM1AXrUc kMfI5BUp7iQeymuHEgjl9WdUV4m0tH+O6hojrg0nz321RdSpyDVFiGuPU/FKXBpx1efm40KIq+wX ++8C8tzOvE68gbH1Nzo2pGcjxJX2naO6Our1Q3X7a6qrRMLIMSx+LdW1L/ATVVdnk0fu4OKFECOu +tzX1x6qK0JaSLwxp3nfuOqq+a1j9lJddb9Hdc28KZOaPEJcxbgU0iJiPXExn9us2tbe7qO6atdT D/dSXTUyvrjqen093qy6auWCs2UQ12o1/WEmNHl5Iaypuuq3GTLhjy4CDauRV6S4d3jic0OKO4s3 kFc4B7pBR3WN/RJ7kuoKN/iK8RHX3k9qbYOJXvPjI64NJ899teUTV9pvRHXNrW8IcR3te6iuO+Y1 QlybPV91DddrkLhWO3k9DxLqIohTVdeRIE9VXYlmRZo4fIC42ue+vnDiavPrbfKRQtj7QYirht/x 0Viy7z1VV+165DEYca1j5qiuoZuyrrivp7rGcwBr8Lz9aRNIi4olxrNYmLR4a9uIs+A/pbpqpKW9 PaqrFtNI9BpOnvtqixDXivPV7Ahx7XEqvqh5Lf2Ia3whqqt2z7qj6uou7jc/U+52/uzBJm/5a0XJ a7i4PwdEm/zZkGCM7dfyutrXU6eQGzKEuOpzO5u8g7jyviOqa159Q4gr7TdHdd0xr9vb3/k2AarX Sh7Yrul7VFfjemsEFiGu/GmdDiHEdYjtZkGIKzfraPOrrr6i0ftBGryGdzVTB3Gl7TmqK1LcO7yT uI72PNVVK+7amChx7e1HdbXMjeUAjdH9ng0Jrjh57qvtd1RXjbToc/NxaaSlvc1VXWni2vtJ69nE RGdDghziqvs1rLc6wUMZuqPqejYkOKqrs+k4yWu46UDk1Utcx9hS8/rmJ5rXalxCTmvYap9DXMcx 66uuvmvaR3W11fujuqL1msXCxLVi/OR1Ur125AFS27Q8QHq2Rl7Tc+BicNWQzmZcb20SbSMDnrjy p3U6tKrqaia+G6muSHEf8A7iStv3Vl21hc3iIeLa/NgLfB5xJfHGvNaKOz/maYPy2psDzY8vr79f ddVJy36qK0JaaL8RdarHqXglLp64Nj9RoqflQDv8HtX1bEjQ+0GIq4gvxs96vB6awM5SXcXL2lR1 1f6ou6quEmmxzX192YmrFhu8CIZJJqquBuIq+8WIqwnL4EisMad5v0d11eekXnuqrlBeA8S12fNV 13Beg6Sl2t+hukZuYGic7PdsSHDFyXNfbe9XXe09u8dZ8AHV9eqH2sjAS1wb5qiuvR8/cW1+1LiC pKXZ81VXhLS0hb2y6uqIzUBetRyQx8jkFSnuJB7Ka4cSCOX1Z1RXibS0f47qGiOuDSfPfbVF1KnI NUWIa49T8UpcGnHV5+bjQoir7PdsSPCuG7JPqq4p9ZrJg+fp+4+4vOQ1QlxHPzNUV4mEkWNY/Fqq 69mQ4G6LE1d97utrD9UVIS0k3pjTvG9cddX81jFHdbXPHW/yq6qurryGSYv9BiZUQ7xxyU1exnri MpLXKHF9YWEy7r+eeriX6qqR8V1VVzoHmp+L6dGfchJX3s7ZMohrtZr+MBOavLwQ1lRd9dsMmfBH F4GG1cgrsgg6PPG5IcWdxRvIK5wD3aCjup4NCXo/qbUNJnrNj4+4Npw899WWT1xpvxHVNbe+IcR1 tO+huu6Y1whxbfZ81TVcr0HiWu2w6np9XTYymKq6jj6mqq5EsyJNHD5AXO1zX184cbX59Tb5SCHs /SDEVcPv+Ggs2feeqqt2PfIYjLjWMXNUVymvWXxX3NdTXeM5gDV43v60CaRFxRLjWSxMWry1bcRZ 8GdDgobT50Z69t/hBNV1IHoNJ899tUWIa8X5anaEuPY4FV+ixLX5YeZ+pBJX2t6T1xVVV3dxv/mZ crfzZw82ectfK0pew8X9OSDa5M+GBGNsO+Y18t9gqn09dcpFpobX2ZAgs74hxJX2m6O67pjX7e3v fJsA1WslD2zX9A7V1XcD475ReNmM6y2Q1//sO3HpdAghrs1OhXs2JLDPfbXtpboixb3DO4nraM9T XbXiro2JEtfeflRXy9xYDtAY3e/ZkOCKk+e+2n5HddVIiz43H5dGWtrbXNWVJiy9n7SeTUx0NiSI qK75glOUuF7s2k5cOnGl7XbyGiWuHSrQ5EN/GKjJ2/4wpcSbvOWvFSWv4eL+HBBt8mdDgjG21Ly+ +YnmtRqXkNMattrnENdxzPqqq++a9lFdbfX+qK5ovWaxMHGtGD95nVSvHXmA1DYtD5CerZHXKT3b QF6Rnv3Cw3n9fA7st6muZuK7keqKFPcB7yCutH1v1VUr7iweIq7Nj73A5xFXEm/Ma62482OeNiiv vTnQ/Pjy+vtVV5207Ke6IqSF9htRp3qcilfi4olr8xMleloOtMPvUV3PhgS9H3teL6m6XjHUVrIR 4nqZflPVVfuj7qq6SqTFNvf1FbmDm6i6Bpo8RloihbD5iRJXE5bBkVhjTvN+j+qqz0m99lRdobwG iGuz56uu4bwGSUu1v0N1jdzA0DjZ79mQ4IqT577ajup69RPM6/v/gY2QVztxbXY/eUWIa2/PVV2R 4l5KnLg2e77qipCWtrBXVl0dsRnIK5wD3aA9VNe5ef0Z1VUiLe2fo7rGiGvDyXNfbRF1KnJNEeLa 41S8EpdGXPW5+bgQ4ir7PRsSvOuG7JOqa0q9DhDX0T74eXTDVlRdJRJGjmHxa6muZ0OCuy1OXPW5 r689VFeEtJB4Y07zvnHVVfNbxxzV1T53vMmvqrq68homLfYbmFAN8cYVaPJIbWtv91Fdteuph3up rhoZ31V1pXOg+UnI6/Yc2FmqqxzqOx6NNeJYLERcmx87ec0lrgP+5ie6CDSsRl6RRdDhic8NyQEW byCvcA50gyY1+OHknqorT1omqa5wg68YH3Ht/SA3MFpDfJ/qmlffEOJK+42orrn1DSGuo30P1XXH vEaIa7Pnq67heg0S12qfo7pqPOQ2hvo/sAbof9KYu40K92xIYJ/7avM2+Ugh7P0gxFXD7/hoLNn3 nqqrdj3yGIy41jFzVFetGMo5MI4XcTc/viaf0+BJfEda4g2etz9tCnnNr21/h3HVFSEtGv5sSNBw +txIz/47nKC6DkSv4eS5r7YIca24KNGzE9cep+ILRlz1uZ1x/SOeA6vCt1Bd36tOmZp0sMlrxX3A Q2Tc3kg18oosgg7vJK/hxWkgrwhxfdk3yms1LoaEWbDVvp465SJTw+tsSPALquuOed3e/s63CVC9 VvIgrV4Tn1u0Z4txDeQ1l7i+8IG81tYbia8nLBsZ2Ilrs1Phng0J7HNfbXuprkhx7/BO4jra81RX rbhrY6LEtbcf1dUyN5YDNEb3ezYkuOLkua+231FdNdKiz83HpRHXdpirutKEpfeT1rOJic6GBBHV NV9wihLX0e69Mb8R2Dmq69mQ4KiuzqbjJK/hpgORVy9xHWNLzeubn2heq3EJOa1hq30OcR3HrK+6 +q5pH9XVVu+P6orWaxb77/52LdUVIS31MEZctbi0PEB6tkZep/RsA3lFevYLD+e1V3R8fd7cRgZ2 4trsfvKKENfevo/qihT3Ae8grrR9b9VVK+4sHiKuzY+9wOcRVxJvzGutuPNjnjYor7050Pz48vr7 VVe9uO+nuiKkhfYbUad6nIpX4uKJa/MTbfJaDrTDd6iuOfUtPweaH4S4anjz5+wkrrTfn1ddrxh+ I4NdVVftj7qr6iqRFtvc11fkDm6i6hpo8hhpiRTC5idKXE1YBkdijTnN+z2qqz4n9dpTdYXyGiAt zZ6vuobzGiQt1f4O1TWsThnm7v2Y/oZCHsypbX+HMdVVXW9KHqT1bCd5zenZPc6C30B1vVof40gz ceVc7qm6IsW9lDhxbfZ81RUhLW1hr6y6OmIzkFc4B7pBe6iuc/P6M6qrRFraP5urrolEz0dcG06e +2qLqFORa4oQ1x6n4pW4NOKqz83HhRBX2e+eP9LifeOqK9KzEeJK+85RXVPqdYC4jnZIdb2++o0M ZqquEgkjx7D4tVTX929IECmEdpxGXHW/ceKqz3197aG6IsWdxBtzmveNq66a3zrmqK72ueNNflXV 1ZXXMGmx38CEaog3rkCTR2pbe7uP6qpdTz3cS3XVyPgU1XXIgR6n4kuUuDY/qXk95ACNe9qeGxlA xLVaTRfxZtKyquqqEcQBf/MTXQQaViOvyCLo8BAZ/w3VNT+vP6+68qRlkuoKN/iK8RHX3g9yA4MQ V943TlxVPIMZcE7iSvuNqK659Q0hrqP9qK4rPhqr2fNV13C9/ne3r6O6ajyEHOOv14/3qK5EsyJN HD5AXO1zX184cbX5jamuvkLY+0GIq4bf8dFYsu89VVfteuQxGHGtY+aorloxlHNgHC/ibn58TT6n wZN4B3lFbmDOo7GCccFN3q4i92+P6qrFNBK9hpPnvtoixLXiokTPTlx7nIovGHHV53bGZcxpAmvZ iYsL9WxIYJv7anu/6qpek0JekUXQ4Z3kNbw4DeQVIa4v+0Z5rcbFkDALttrXU6echfD2OhsS/ILq umNet7ff821CPVxPdXXVa+Jzi/ZsMa6BvOYS1xc+kNfaeiPxWF5rO3FRsLMhgX3uq20v1RUp7h3e SVxHe57qqhV3bUyUuPb2o7pa5sZygMbofs+GBFecPPfV9juqq0Za9Ln5uDTi2g5zVVeasPR+0no2 MdHZkCCiuuYLTlHiOtqnqq5XP9xOXH7i2qECTT70h4Ga/FFdpy2C4WBv1VUiLSYsgWGxUA70fqLE VcNW+xziOo5ZX3X1XdM+qqut3h/VFa3XLNbY5HPzuveTWq8deYDUNi0PkJ6tkdcpPdtAXpGe/cLD ee0VHaN5/fqcqZ24/OQVIa69fR/VFSnuA95BWmj73qqrVtxZPERcmx97gc8jriTemNdacefHPG1Q XntzoPnx5fX3q656cd9PdUVIC+03ok71OBWvxMUT1+Yn2uRtDX7EifjneIS4ynM78xrOgeYHIa4a 3pzXTuJK+z2qa0K9vu7E5SeuHSq5yWt/1F1VV4m02Oa+viJ3cBNV10CTx0hLpBA2P1HiasIyOBJr zGne71Fd9Tmp156qK5TXAGlp9nzVNZzXIGmp9neorm9Xp+S4hDyYU9v+DmOqq7relDxI69lO8prT s3ucBf/Fquv19RDC3VN1RYp7KXHi2uz5qitCWtrCXll1dcRmIK9wDnSD9lBd5+b1Z1RXibS0fyZ9 rTpMMkl1TSR6PuLacPLcV1tEnYpcU4S49jgVr8SlEVd9bj4upMHLfvf8kRbvG1ddkZ6NEFfad47q mlKvA8R1tH9Edb2+HgT0bEgwVXWFiJ4dpxFX3W+cuOpzX197qK5IcSfxxpzmfeOqq+a3jjmqq33u eJNfVXV15TVMWuw3MKEa4o0r0OSR2tbe7qO6atdTD/dSXTUyPkV1HXKgx6n4EiWuzU9qXg85QONk v2pe33/EdTYksM+tE8QBf/MTXQQaViOvyCLo8BAZ/w3VNT+vP6+68qRlkuoKN/iK8RHX3g9yA4MQ V943TlxVPIMZcE7iSvuNqK659Q0hrqP9qK4rPhqr2fNV13C9/ne3r6O6ajyEHAPXa/2GrJRS/v17 EdizIYF97qstprr6CmHvByGuGn7HR2PJvvdUXbXrkcdgxLWOmaO6asVQzoFxvIi7+fE1+ZwGT+Id 5BW5gTmPxgrGBTd5u4rcvz2qqxbTSPQaTp77aosQ14qLEj07ce1xKr5gxFWf2xmXMadlv4a8bgMe KkAiLXIggeJ+8zOLuJYSb/LaH2bAQ2Tc8fWlQl6RRdDhneQ1vDgN5BUhri/7RnmtxsWQMAu22tdT p+KFsOKixFWf29nkHcSV931U12/J6/b2e75NqIfrqa6uek18btGeLcY1kNdc4vrCB/JaW28kHs5r s+p6fT1YkEZc5WACfxhjg+f9HtXVNu/dvp/qqhV3bUyUuPb271Fdz6Oxej/zcsDxWXcvb23rcfLc V9vvqK4aadHn5uPSiGs7zG3yNGHp/aT1bGKisyFBRHXNF5yixHW0L6m6vjCF24lLI69pdzuEH3+T P6rrtEUwHOytukqkxYQlMCwWyoHeT5S4athq96pTjvXWHa2vuvquaR/V1da0juqK1msWa2zyuXnd +0mt1448QGqblgdIz9bI65SebSCvSM9+4eG89oqO0bwOqa5XPz2BRYhrb99HdUWK+4B/E2lBiGu1 z1FdteLO4iHi2vzYC3wecSXxxrzWcoAf87RBef0Z1VW/eRkxKvaJMcUVJK/x2ub4rLvXZ1VXhLTQ fiPqVI9T8UpcPHFtfqJN3tbgR5yIf45HiKs8tzOv4RxofhDiquHNee0krrTfo7pOq9dCXj9Nj/uJ 9Cav/VF3VV0l0mKb+/qK3MFNVF0DTT5UcAzEVfaLEVcTlsGRWGNO836P6qrPSb32VF2hvAZIS7Pn q67hvAZJS7W/Q3VdR53SyOuc2vZ3GFNd1fWm5EFaz3aS15ye3eMs+F9UXbVnVl/Ml/8DGyCuvT1X dUWKeylx4trs36O6nkdjjbEhxZ3EQ3ntUAKhvP4t1VW6Hn3uOHGth3PUqbMhgS8ujbjqc/NxIQ1e 9rvnj7R437jqivRshLjSvnNU15R6DRPXhhHHwMS1YvzkVfysHzfLRNX11kSiTd73AUxUXSGiZ8dp xFX36yUtkRwYcSzWQFxlv5jqihR3Em8krrxvXHXV/NYxR3W1zx1v8quqrrHa9ncYJ65iXAppEbGe uOAmv5A6RU6Aq656zzbWECIudb0B5NX1OTvJK0Jc+7cT8pqcYEJeDzlA42S/qarr9fV4Wt5DWlZV XbXiPuBvfpC7HYS8Iougw0Nk/DdU1/y8/rzqypOWSaor3OArxkdcez/IDQxCXHnfOHFV8QxmwDmJ K+03orrm1jeEuI72o7qu+GisZs9XXcP1+t/dvqrq6if8s4hrKXJ9U67pMQQVbfJag7fPfX3hxNXm N6a6+gph7wchrhp+x0djyb73VF2165HHYMS1jpmjukp5zeK74r6e6hrPgWhee3NgxKlYYjyLdZJX vLaNOAv+bEjQcPrcSM/+O5ygug5Er+Hkua+2CHGtOF/NjhDXHqfiC0Zc9bmdcRlzWvaL/XcBee6X jfgRFz94cCBioSbv+Poy2OS1P8yAh8i44+tLhbwii6DDO8lreHEayCtCXF/2AHn9VF6rcTEkzIKt 9vXUqXghrLgocdXndjZ5B3HlfR/V9Vvyur39nm8T6uF6qqurXhOfW7Rni3EN5DWXuL7wgbzW1huJ h/N6uup6Hf/wAhgbdfL3Ho1F23NUV6S4d3gncR3teaqrVty1MVHi2tu/R3U9GxL0fublgOOz7l7e 2tbj5Lmvtt9RXTXSos/Nx6UR13aY2+RpwtL7SevZxETftiHBlJ5tIK4ivhjXWyCnR/seqmugXht2 4jqqqym2cHF/Dog2+eU2JDA2eY3o+Qr8RNUVyoHeT5S4athq96pTjvXWHa2vuvquaR/V1Vbgj+qK 1msWa2zyuXnd+5lT2/4OY8RVi0vLA6RnI+Q13LMN5BXp2S88nNeRnk3jZL9vVV2vL2UnrqO6qnPn LOy1VFetuLP418JeT3XVijuJN+a1lgP8mKcNyuvPqK4SaWn/7KW66sV9P9UVIS203whx7XEqXomL J67NT7TJ2xr8iBPxz/EIcZXnduY1nAPND0JcNbw5r53Elfabo7qm1OsAcR3teaorXK+DxLW3k7Ex O3F5/jAJTd7H3nNVV4m02Oa+viJ3cBNV10CTDxUcA3GV/WLE1YRlcCTWmNO836O66nNSrz1VVyiv AdLS7PmqazivQdJS7e9QXddRpzTyOqe2/R3GVFd1vSl5kNazneQ1p2f3OAv+F1XX4KOxbjYxLupH XLmqK1LcS4kT12b/HtX1PBprjA1ZBCQeymvHnSWU17+lukrXo88dJ671cI46dTYk8MWlEVd9bj4u pMHLfvf8kRbvG1ddkZ6NEFfa996qa2i9wcS1YvzkdQoPefj/MLcmEm3yvg9gouoKET07TiOuul8v aYkQvRHHYg3EVfaLqa5IcSfxRuLK+8ZVV81vHXNUV/vc8Sa/quoaq21/h3HiKsalkBYR64kLbvIL qVPkBLg6pfdsYw0h4lLXG0BeXZ+zk7wixLV/OyGvyQkm5PWQAzRO9ruE6no9+FNgv0N11Yr7gL/5 Qe52EPKKLIIOD5Hx31Bd8/P686orT1omqa5wg68YH3Ht/SA3MAhx5X3jxFXFM5gB5ySutN+I6ppb 3xDiOtqP6rrio7GaPV91Ddfrf3f7qqqrn/DPIq6lyPUN6dkDvh0YNzIwNngWn0BcNbyr4DiIK21f X3VFijuLNxBX2feeqqt2PfIYjLjWMXNUVymvWXxX3NdTXeM5EM1rbw6MOBVLjGexTvKK17YRZ8Gf DQkaTp87QKZg8hohrg0nz321RYhrxflqdoS49jgVXzDiqs/tjMuY07Lft2xIMGBI7JjT3I+4qJN7 /khrwDvIa7i4PwdEm/zZkGCMLW0RDCfPhgRZxFX3ezYk+AXVdce8bm+/59uEerie6oqQFoS4inEN 5DWXuL7wgbzW1huJh/N6WdX1efhfKeJGBsYGz+ITVFeb371UV6S4d3gncR3teaqrVty1MVHi2tu/ R3U9GxL0fublgOOz7l7e2tbj5LmvNv/11MP9VFeNtOhz83FpxLUd5jZ5mrD0fqJNXsuBeuodqut7 bshiPCSiuuYLTlHiOtr3UF1T67Vc25iNDKAmf1TXaYtgOJiouhqbvEb0fAV+ouoK5UDvJ0pcNWy1 e9Upx3rrjtZXXX3XtI/qaivwR3VF6zWLNTb53Lzu/cypbX+HMeKqxaXlAdKzEfIa7tkG8or07Bce zutIz6Zxst/Pqq6BvH7cR7wc+O92WmB29r6O6pqzsNdSXbXizuJfC3s91VVbBCTemNdaDvBjnjYo rz+jukqkpf2zl+qqF/fNVVdiku96NFbzE23ytgY/4kT8czxCXOW5nXntvIEJ5zV4AxPP6997NNZo z1Nd4XodJK69PfXG/HEd9XIQbfI+9p6rukqkxTb39RW5g5uoukJEb8SxWANxlf1ixNWEZXAk1pjT vN+juupzUq89VVcorwHS0uz5qms4r0HSUu3vUF3XUac08jqntv0dxlRXdb0peZDWs53kNadn9zgL /hdV1zc/GutmF/PnARLXFpj9Qziq63k01hgbsghIPJTXjjtLKK9/S3WVrkefO05c6+Ecder7NyTI rW8acdXnpjEsztjgZb97/kiL942rrkjPRogr7Xtv1VW6HnYMTFwrxk9eJ/EQR15fhrbnwEabvO8D mKi6QkTPjtOIq+73qK62ee/2fVRXzW8dc1RX69zuvO6K+5qqa6y2/R3GiasYl4G85ta23s+s2tbe 7qO6atdTD/dSXTUyPkV1HXKgx6n4EiWuzU9qXg85QONkv0s/GkuOqz98BBZBC8z+IeQS1wF/84Pc 7SDkFVkEHR4i47+husoFfk/VFWnwoz1PnZL9rqlOnUdj/b3WV10/ldey7zXzuh5OqtcAcW32fNU1 XK//3e2rqq5+wj+LuJYi1zekZw94OK9vz4E1AATbBSs0eA3vKjgO4krb11ddkeLO4iHi2vzYC/wa qqtW3OUxGHGtY+aorlJes/iuuK+sukaKe0R1jXyj1HDy3Ffb+1VXhLRo+LMhQcPpc2PEtZ6aoLoO OdBw8txXW4S4VpyvZkeIa49T8QUjrvrczriMOS37/RrV9epnJLBIcS8l3uS1P8yAd5DXcHF/Dog2 +bMhwRhb2iIYTn7ThgQ5NzBR4qr7PRsS/ILqmp/Xzc+svG5vv+fbhHopWO2yAAAgAElEQVS4nuqK kBaEuIpxDeQ1l7i+8IG81tYbiYfz+utU16vdsBNXgupqW9h7qa5Ice/wTuI62vdXXbGFva7qejYk 6P0gDZ7EO8hrTm3rcfLcV5v/eurhfqqrRlr0ufm4NOLaDnObPE1Yej/RJq/lQD31DtX1PTdk5hpy w6gxGYiriC/G9RbI6dG+h+qaWq9h4tr7eY4RduI6qisbG7wIhoOJqquxyWtJ4yvwE1VXKAd6P1Hi qmGrPaa6mtZbd7S+6uq7pn1UV1uBP6orWq9ZrLHJ5+Z172dObfs7hNQpMTB3Dels8RuYKT3bQF6R nv3Cw3kd6dk0Tva73YYEil82LmYnro1V15yFvZbqqhV3Fv9a2Curro7YLn6QHODHPG1QXn9GdZVI S/tnL9VVL+6bq67EJGdDgghxHXEi/jkeIa7y3M68dt7AhPMavIGJ5/XvPRprtOeprnC9DhLX3v4x 1fX6uv8f2M+rrhJpsc19fUXu4CaqrhDRG3Es1kBcZb8YcTVhGRyJNRJX3u9RXfU5qdeeqiuU1wBp afZ81TWc1yBpqfZ3qK7rqFMaeZ1T2/4OY+qUut6UPEjr2U7ymtOze5wFv5TqOuQAjZP9br0hQSyu fx2BPaqrfe4/m+OrPuJzQxYBizeQV6TBv+wQGX+/6jo3r39LdZWuR587Tlzr4Rx16mxI4ItLI676 3DSGxRmJq+x3zx9p8b5x1RXp2QhxpX3vrbpK18OOMeY1Uq9LoerbJB7iyGutZ/Njyl9eP4q5kTLN SnVU5D/MgIWInh2nEVfdb1x1RUgLizcQV9k3proixZ3EG4kr7xtXXTW/dcxRXa1zu/O6K+5rqq6x 2vZ3GCeuYlwG8ppb23o/SENEyGuUuL6wcJP3X0893Et11cj4FNV1yIEep+JLlLg2P6l5bbwe2e9X PhpLjqvPaelHXBdMsMlrxX3A3/wgdzsIeUUWQYeHyPhvqK5ygd9TdUUa/GjPU6dkv2uqU+fRWH+v 9VXXT+W17HvNvK6Hk+o1QFybPV91RUhLb19VdfUT/li9/upHY4mB3T5v7kdcz/FCg9ecuQqOg7jS 9qO62ua9v/ZUXbXiLo/BiGsdM0d1lfKaxXfFfWXVNVLc43fx9puXHifPfbW9X3VFSIuG/7UNCbTr kefGiGs9NUF1HXKg4eS5r7YIca04X82OENcep+ILRlz1uZ1xGXNa9rvnj7R439CNubATV7DJa3+Y Ae8gr+Hi/hwQbfJnQ4IxtmhxZ7EQefUS1x5jwVZ7jLja5qZxLNZAXHW/Z0OCX1Bd8/O6+ZmV1+3t 93ybUA/XU10R0oIQVzGugbzmEtcXPpDX2noj8XBeH9X1jivkTlxB4trse6muSHHv8E7iOtr3V12x hb2u6no2JOj9IA2exDvIa5S4lqKT1xTiSpzYUXXVSIs+Nx+XRlzb4QTVlRzwTarre27IzDXkhlFj MhBXEV+M6y2Q06P9qK4THo31MhhqyG0nrmCTd/9hHOQ1XNyfA6JN/mxIMMYWLe4kFsqB3k+UuGrY ao+prmpuDmPWV11917SP6mor8Ed1Res1izU2+dy87v3MqW1/hx9Rp/J6tpO8hnu2gbwiPfuFh/M6 0rNpnOz3ZzYkGIDGvH7+iCtIXJs9X3XNWdhrqa5acWfxrz/qpLudPxuTB8giIPEXP0gO8GOeNiiv P6O62hb2XqqrXtw3V12JSc6GBBHiOuJE/HM8QlzluZ157byBCec1eAMTz+vfezTWaM9TXeF6HSSu vX071fX6enyX6vrP+YcZbHHiqs99feURV9mvV3WN5ACNI7FG4sr7PaqrPif12lN1hfIaIC3Nnq+6 hvMaJC3V/g7VdR11SiOvc2rb32FMnVLXm7/J32y/pbq+Na+HHKBxst+f3JBAzB8B+xgGio46+/eo rufRWGNsyCIg8UbyCuVAkckr0uA7fIC8hpoOTF7PhgRXnDz31bay6ppb37QGr89NY1ickbjKfvf8 kRbvG1ddkZ6NEFfa996qq0amyDHGvEbqdSlUfZvEQxx5rfVsfkxB85r4EZcwGiGutrmvrxziqvuN q64IaWHxBuIq+8ZUV6S4k3gjceV946qr5reOOaqrdW53XnfFfU3VNVbb/g7jxFWMy0Bec2tb7yeV uN4Msdw+GxJccfLcV1tMRZ6iug450ONUfIkS1+YHIXo6caVxst+f35CAjM1wA/O4HEgDaQessxuZ QO52EPKKLIIOD5Hx31Bd5QK/p+qKNPjRnqdOyX7XVKfOo7H+Xuurrp/Ka9n3mnldDyfVa4C4Nnu+ 6oqQlt6+qurqJ/yxen0ejXXHqdg+Ln0nLlfBcRBX2n5UV9u899eeqqtW3OUxGHGtY+aorlJes/iu uMeIqzZmLO45DZ7EO8hrlLiWopPX/Nr2dxhXXZHiruF/TXXVrkeeGyOu9dQE1XXIgYaT577aIsS1 4nw1O0Jce5yKLxhx1ed2xmXMadnvnj/S4n3jN+aBns3vxKX9YQaHDvIaLu7PAdEmfzYkGGOLFncS eyNHfvLqJa49xoKt9hhxtc1N41isgbjqfs+GBL+guubndfMzK6/b2+/5NqEerqe6umoI8blFe7YY 10Bec4nrCx/Ia229kXg4r4/qesepWD4ueieu2EL4rOqKFPcO7ySuo31/1RVb2OuqrmdDgt4P0uBJ vIO8RolrKTp5TSGuxIkdVVeNtOhz83FpxLUdTlBdyQHfpLq+54bMXENuGDUmA3EV8cW43gI5PdqP 6rrQo7GIKdjYbhsZEA5EZw7yGi7uzwHRJn82JBhjixZ3EgvlQO8nSlw1bLXHVFfbAhtxYlwG4qr7 3vPRWLx/XHW1Ffh9vlITsS/7HNVVqtcs1tjkc/O69zOntv0drqdOuWqIk7yGe7aBvCI9+4WH8zrS s2mc7PdsSHDHiVh7XPcfceWrrjkLey3VVSvuLP71R510t/NnY8gesghI/MUPkgP8mKdNIK/5OdD8 2AhRj1HjMpBXpMG/8EHy6m46DvIaJa6lYOQ1SlzrqQmq60BYepyKV+LiiWvzE23ytgY/4kT8czxC XOW5nXmdeAODEFcNH8/r33s01mjPU13heh0krr39Z1TXa317iH+YwZmzyYcWwdMYL4QYcdXnvr7y iKvs16u6RgohjSOxRuLK+8VV18RFMMRlm3vE0bb+ZLwQVpyvya+hukJ5DZCWZv8e1XWpB7ffTsZy +2xIcMXJc19tv6W6vjWvhxygcbLfsyHBHSdiPXG1SeiNDEhnNzLhWwQNp2Hbh5BPXDs8QY6QRcDi DeQVafAvO0TG36+62hf3UV3Nn3WQvEaJaz2co06dDQl8cWkNXp+bxrA4I3GV/e75Iy3eN6662q7p qK6ogMaOMeY1Uq9LoepbDnEd8I681no2P6Yk5HXoBkb6Edf9IFII7TiNuOp+46orQlpYvIG4yr4x 1RUp7iTeSFx530d11eekXmdDgnepU2dDAt8NWXu7j+qqkfF6uJfqqpHxKarrkAM9TsWXKHFtfqJ5 TWKN1yP7PRsSZN/ASLXtn7oT141MIHc7CHlFFkGHh8j4b6iucoHfU3VFGvxoz1OnZL9rqlPn0Vh/ r/VV10/ltex7zbyuh5PqNUBcmz1fdUVIS29fVXX1E/5YvT6PxrrjVKwSV4fn85rZictBXGn7UV1t 895fe6quWnGXx2DEtY6Zo7pKec3iu+IeI67amLG45zR4Eu8gr1HiWopOXqPEdcA6ySte20acBf9r qqt2PfLcGHGtpyaorkMONJw899UWIa4V56vZEeLa41R8wYirPrczLmNOy373/JEW7xu/MZ/Ts6uf 2yliJy4HeQ0X9+eAaJM/GxKMsUWLO4m9kSM/efUS1x5jwVZ7jLja5qZxLNZAXHW/Z0OCd6lTZ0OC hhHjgolrxfjyuvczK6/r4Xqqq6uG6E1e8eu7gXF91p3NuN4Cea2tNxIP5/VRXe84FeuJy5bXl524 HMSVtueorsgH0OGdxHW076+6Ygt7XdX1bEjQ+0EaPIl3kNcocS0FI6+uz9pJXvHaNuIs+LMhQcPp c2PEtZ56h+rqzQEaM+CcxJX2G1Fd8wWnKHEd7Ud1/YJHYw2xCXM/bqB9VVf6jzpRdTU2eS1pfAX+ Harr536kpWGrPaa62hbYiBPjMhBX3feej8bi/e+ruobzGiQt1T5HdZXqNYs1NvncvO79zKltf4fr qVOuGuIkr+GebSCvSM9+4eG8jvRsGif7/c0NCUI1xBsXOYma148nMFIIG07DIsS12ueortofhsW/ Fvaku50/G0P2kEVA4o3kVcsBfszTJpDX/BxofnyEPPKV2l6qq17cN1ddiUnOhgR5xFX2ezYk+AXV NaVeB4jraM9TXeF6HSSuvf2org4e0p4DGyV69oU9UXWFiN6IY7EG4ir79aqukUJI40iskbjyfnHV dc4i+KzqqvvdU3WF8hogLc3+ParrUg9uv52M5fbZkOCKk+e+2mLXs6vq+ta8HnKAxsl+z4YEd5yI 9cTlzGkC8nAugupEtjdjtMmfR2ONsSGLgMQbySuUAwUjr7+muiINvrevo06dDQl8cWkNXp+bxrA4 I3GV/f5eXiPEtdmP6ooKaOwYY14j9boUqr7lENcB78hrrWfzY0pCXsdvYAI5QG9kIAAYWw+MF8LI BxAphD1OxBuIq+wbU12R4k7ijcSV931UV31O6nU2JMgirgMWJi05xV3EeuKCm7zvhqy93Ud11ch4 PTyqqxrTkAM9TsWXKHFtfqJ5TWKN1yP7PRsSZN/ARIkr7fflR9nIoB/M2HtjtMmfR2ONsaUtguHk nqor0uBHe546JftdU506GxL8vdZXXT+V17LvNfO6Hk6q1wBxbfZ81RUhLb19VdXVT/hj9fo8GuuO U7FKXB0ezushrsf9BAtAiKuG31F11UiLNiZKXHt7ruqqFXd5DEZc65g5qqthIbAghLhqY8bintPg SbyDvEaJayk6eY0S1wHrJK94bRtxFvyvqa7a9chzY8S1npqgug450HDy3FdbhLhWXLTJI8RVxBeM uOpz0xgWa8xp2e+eP9LifeM35nN6dvWT1LOJjQxug9WLUMgrsgg6vJO8hpsORF4dTSdAXhHSMlN1 PRsS3F9nQ4J3qVNnQ4KGEeOCiWvF+PK69zMrr+vheqqrq4Y4m3yYUBvIa0rPDuS1tt5IPJzXP/ho rKcRIa/JGxIIfsW4qB9x5aiuyAfQ4Z3EdbTvr7piC3td1fVsSND7QRo8iXeQ1yhxLQUjr67P2kle 8do24iz4VR+N1Q4nqK7C9chzY8S1nnqH6urNARoz4JwNnva7vuqaXq+NxFX2vafqCvVskLjWMfmq q0bGmTHX/0KwhupK/1Enqq7GJq8lTZS4mrAMjsQaiSvvFyeuGrbaY6qrbYGNODEuA3HVfe/5aCze /76qazivQdJS7XNUV4m0sFhjk8/N697PnNr2dziBuD4HRJu8q4bATd5+Q9aP2Ud1nZPXC6muxETf 9Wis6mdSbfsjsHurrtoHwOJfC3vS3c6fjSF7yCIg8UbyGrzbabYgGa/2z6iu0sJu/+yluurFfXPV 1VncaUhOcRfxSlxacdfn5uNCGrzs92xI8Auqa0q9DhDX0Z6nusL1Okhce/tRXVHiSo8p17y2bWTQ fwATVVeI6I04FmsgrrLfo7ra5r2P2Ut11f3uqbpCeQ2Qlmb/HtV1qQe3307GcvtsSHDFyXNfbbHr 2VV1fWteDzlA42S/Z0OCd36j5Och3p5dSin/cT/i6kHRJn82JBhjQxYBiTeSV4S4loKR119TXZEG 39vXUafOhgS+uLQGr89NY1ickbjKfn8vrxHi2uxHdfUT14YRxxjzGqnXpVD1LYe4DnhHXms9mx9T EvI6fgOTngOXk7fPW9iJSyGurKOXLa66IqSFxRuIq+wbU12R4k7ijcSV931UV31O6nU2JMgirgMW Ji05xV3EeuKCm7zvhqy93Ud11ch4PdxYdSUnORsSqHEZr0f2ezYk+ELV9WplduJSyCuyCDq8k7yG /zAG8oo0+Jc9QF5Di9NIXhHiWgpGXs8jhPJuYBDiyvvGiauKZzADzlncab/rq67fkde9n1l5XQ8n 1WuAuDZ7vuqKkJbevqrq6hVnonl9NiS441SsEleHh/M68k3piCsDgVWIq+isRD6Az6uuWnHXxkSJ a2/PVV214i6PwYhrHTNHdQ0thG4RxBq8NkYir/NywLHeupfxs1bIa5S4DlgneQ0R16cxVEO8cSU3 ea24t7e5TV67HnlujLjWUxNU1yEHGk6e+2pbT3V115DOFieu+tw0hsUac1r2u+ePtHjf+I35nJ5d /czv2SPmYnt0Z6JN/hdVV+l6zNgAaZmpup4NCe6vPX+kxfvHVVfb32kv1TU/r5ufWXnd3q6luiKk pR6up7q6aoizyYcJtb3JM3DjegvktZYDJB7O64UejUWc2FF1fXteDzkw4m7DHhBxrfajulrnxhb2 uqrr2ZCg92O/pt9QXZHiTvv9vOrKE9fmJ1oLtOLeDieorsL1yHM7yRQx0dmQYH3VNb1eG4mr7HtP 1RXq2SBxrWPyVVeNjLNjDHlN4B5i0sCLYDiYqLoam7yWNFHiasIyOBJrJK68X5y4athqj6mutgU2 4sS4DMRV931U11VU13Beg6Sl2ueorhJpYbHGJp+b172fObXt73ACcX0OiDZ5Vw2Bm7z9hqwfs4/q OievF1JdiYnOhgQR4jriWOz1ObCGwRf7HNVV+wBY/OtDmHS382djyB6yCEi8kbyG73b+bEEyXu2f UV2lhd3+2Ut11Yv75qqrs7jTkJziLuKVuLTirs/Nx4U0eNnv2ZDgF1TXlHodIK6jPU91het1kLj2 9qO6osSVHlMS8vq/8SkE0eLeYSGiN+JYrIG4yn6P6mqb9z5mL9VV97un6grlNUBamv17VNelHtx+ OxnL7bMhwRUnz321xa5nV9X1rXk95ACNk/2eDQne+Y2Sn4dEVNfwDUwjsMgi6PAEOUIWAYs3kFek wb/sEBl/v+pqX9xHdZ35tWpvX0edOhsS+OJCGvxo30N13TGvEeLa7Ed19RPXhhHHGPMaqdelUPUt h7gOeEdeaz2bH1MS8jp+A5OeA5eT8bzu4tJ34trxR1qyb0x1RYo7iTcSV973UV31OanX2ZAgi7gO WJi05BR3EeuJC27yvhuy9nYf1VUj4/VwY9WVnORsSKDGZbwe2e/ZkOAXVNdAz+Z34vrFR2O97AHy GlqcRvKKENdSMPK6ojoVL4QVEyWu+tzOBeogrrxvnLiqeAYz4JzFnfZ7VNdf+jYBqtcAcW32fNUV IS29fVXV1SvORPP6bEhwx6lYJa4OD+d15JvSESdi5bjonbh2VF21D0AbEyWuvT1XddWKuzwGI651 zBzVNbQQukUQa/DaGIm8zssBx3rrXsbPWiGvUeI6YJ3kNURcn8ZQDfHGldzkteLe3uY2ee165Lkx 4lpPTVBdhxxoOHnuq2091dVdQzpbnLjqc9MYFmvMadnvnj/S4n3jN+Zzenb1M79njxgWd/MjjOkJ 7C+qrtL1mLEB0jJTdT0bEtxfe/5Ii/ePq662v9Neqmt+Xjc/s/K6vV1LdUVISz1cT3V11RBnkw8T arDJnw0JGk6fG+3Zkbz+vOr69rwecmDEsVhrXNV4/RHXUV2tc2ML+zway58DNEb3ezYkuOLkua+2 /OJO+/286soT1+YnWgu04t4OJ6iuwvXIczubDjHR2ZBgfdU1vV4biavse0/VVboedQxIXOuYfNU1 zEMMea1fk4m8llL/D2yctGjBIKSlvp2ougaJXpy0nA0JrjgxLgNx1X0f1XUV1TWc1yBpqfY5qqtE Wlisscnn1bYxtjm17e9wAnF9Dog2eVcNgZu8/YasH7OP6jorr0019x15TUx0NiSIENcRx2KtcY1G +v/ADs4IcoR8ACz+9SFMutv5szFkD1kEJN5IXhHiWopMXpFF0OED5DXUdAzkFVkEL3yQvLqbjoO8 Ik3+bEhgj0sr7vrcfFxIg5f9ng0JfkF1TanXAeI62vNUV7heB4lrbz+qK0pc6TElIa/Dz/blfsR1 fxMphCOOxRqIq+z3qK62ee9j9lJddb97qq5QXgOkpdm/R3Vd6sHtt5Ox3D4bElxx8txXW+x6dlVd 35rXQw7QONnv2ZDgnd8o+XlIRHXNv4GRcuAfpcBK5BVZBCzeQF6RBv+yQ2T8d1RXfmHvq7oiDb63 r6NOnQ0JfHEhDX6076G67pjXCHFt9qO6+olrw4hjjHmN1OtSqPqWQ1wHvCOvtZ7NjykJeR2/gUFy YF5eYzcwTxOxE5eTuI72PVRXpLiTeCNx5X0f1VWfk3p904YE3hwYcSqWGM9iYdKSU9xFrCcuuMn7 int7u4/qqpHxerix6so0xWiTt+dAj1PxJUpcm59oXpNY4/XIfs+GBL+gusI9257Tt524nOQ1/Icx kFeEuL7sAfIaWpxG8oqQllIw8rqiOhUvhBUTJa763M4F6iCuvO+I6uptiDRmwDmLO+33qK6/9G0C VK8B4trs+aorQlp6ey5xfeEDeR1ab3Benw0J7jgVq8TV4eG8XkN1pYlr80OYHyzRQ4o7i4eIa/Nj L/BrqK5acZfHYMS1jpmjuoYWQrcIYg1eGyOR13k54Cg43cv4WSvkNUpcB6yTvIaI69MYqiHeuJKb vFbc29vcJq9djzw3RlzrqQmq65ADDSfPfbWtp7q6a0hni6iukwQnY07Lfvf8kRbvG78xn9Ozq5/5 PXvEsLibHz95VWvIw01ew00HIq+OphMgrwhpmam6ng0J7q89f6TF+8dVV9vfaS/VNT+vm59Zed3e rqW6IqSlHq6nurpqiLPJhwk12OSP6tpw+txoz47k9edV17fn9ZADI47FWuNijaZ6/SieJh9qPBBx bX7sBT5CXEcci7/4QYgrP+ZpY65Hw1V7RJ3CGzyLN5BXZBG88DAZ/w3VFSnutN/Pq648cW1+orVA K+7tcILqKlyPPLez6RATnQ0J1ldd0+u1kbjKvvdUXaXrUceAxLWOyVddwzzEkNf6NU1RXa924kdc /ODOAW8fT54NCXo/UeKqYas9prraFtiIE+MyEFfd91FdV1Fdw3kNkpZqn6O6SqSFxRqbfF5tG2Ob U9v+DicQ1+eAaJN31RC4ydtvyPox+6ius/LaVHPfkdfERGdDgghxHXEs1hqXQFz1ubs8eEAfAOvs 9SFMutv5szFkD1kEJN5IXhHiWopMXpFF0OED5DXUdAzkFVkEL3yQvLqbjoO8Ik3+bEhgj0sr7vrc fFxIg5f9ng0J3nVD9knVNaVeB4jraM9TXeF6HSSuvf17VNdP/UiLHlMS8jrl0Vg8doyL34krxMAN xJXFXvxEiasJy+BIrJG48n5x1VXzW8fspbrqfvdUXaG8BkhLs3+P6rrUg9tvJ2O5fTYkuOLkua+2 2PXsqrq+Na+HHKBxst+zIcE7v1Hy85CI6pp/A4MQ135MF5uwkcE4mBnTn9zx0Vgk3kheEeJaCkZe z4YEvR/7Na2jTn1qQ4LzaKyGEWMyElfZ9+/lNUJcmz1fdUVIS29fR3XVSAs5xpjXSL0uhapvOcR1 wDvyWssBfkxJyOvPqK7z8vrtquvV9rifGBzw9v7k2ZBg9GMjLkd1/fPja/KRBt/jWHxX3CcplEUu 7iqWGM9iYdKSU9xFrCcuuMn7int7u4/qqpHxerix6so0xWiTt+dAj1PxJUpcm59oXpNY4/XIfs+G BL+gusI9GyCu/Rg2tttGBvJg1sOOqqtc4DdXXQMNfrQv8tXDMEHeDQxCXHnfEdXV2xBpzIBzFnfa 71Fdf+nbBKheA8S12b9HdT2Pxmo4fW69jwx4OK+N6w3O699SXcFHY9nj+lfuP+LKU121D0AbEyWu vT1XddWKuzwGI651zBzVNbQQukUQa/DaGIm8zssBR8HpXsbPWiGvUeI6YJ3kNURcn8ZQDfHGldzk teLe3uY2ee165Lkx4lpPTVBdhxxoOHnuq2091dVdQzpbRHX15kCPYbHGnJb97vkjLd43fmM+p2dX P/N79ohhcTc/fvKaqrpeD/7+C8E6quv4R52out7IkZ+8eolrj7Fgqz1GXG1z0zgWayCuut89f6TF +8dVV9vfaS/VNT+vm59Zed3erqW6IqSlHq6nurpqiLPJhwk12OSP6tpw+txoz47k9edV17fn9ZAD I47FWuNijemq6/XVb2RAj+lPrqi6Ygv7bEjgzwEao/s9GxJccfLcV1t+caf9fl515Ylr8xOtBVpx b4cTVFfheuS5nU0HzoHmZ24O0JgB52zwtN/1Vdf0em0krrLvPVVX6XrUMSBxrWPyVdcwDzHktX5N 0zckIOMa8GOtln7ENZ48GxL0fqLEVcNWe0x1tS2wESfGZSCuuu+juq6iuobzGiQt1T5HdZVIC4s1 Nvm82jbGNqe2/R3G1Cl1vQFN3lVD4CZvvyHrx+yjus7Ka1PNfUdeExOdDQlyiCuLtcYlEFd9bsd6 G4nrH0bZiev1IUy62/mzMWQPWQQk3kheEeJaikxekUXQ4QPkNdR0DOQVWQQvfJC8upuOg7zmEdeG k+e+2vKLOw3JKe4iXolLK+763HxcSIOX/Z4NCd51Q/ZJ1TWlXgeI62jPU13heh0krr39e1TXsyFB 72duDnQ4ZicuA3El5r68jupqm/c+Zi/VVfe7p+oK5TVAWpr9e1TXpR7cfjsZy+2zIcEVJ899tcWu Z1fVlc6B5ic1r+UmL2MvfhDSIs+NkZZ66h2q6/u+UfLzkPVV19SebctpYicuA3lFGvzLzpA9ZBGQ eCN5RYhrKRh5PRsS9H7s17SOOnU2JKBsseKuzTva91Bdd8xrhLg2e77qipCW3r6O6qqRFnKMMa+R el0KVd9yiOuAd+S1lgP8mJKQ159RXefl9Uc3JBBPCHn9uI8KFhp/ocQAACAASURBVMLmwF7gI4Vw xLF4I3HlfR/VVZ+Tep0NCbKI64CFSUtOcRexnrjgJu8r7u3tPqqrRsbr4caqK9MUo03engM9TsWX KHFtfqJ5TWKNOS37PRsS/ILqCvdsgLj2Y1JU16v90QF3VF3lAr+56hpo8KN9ka8ehgnybmAQ4sr7 jqiu3oZIYwacs7jTfo/q+kvfJkD1GiCuzf49qut5NFbD6XPrfWTAw3ltXG9wXv+W6vqhR2NdTql5 8Hj+USOFsDmwF/g1VFetuMtjMOJax8xRXUMLoVsEk75+GibJafAk3kFeo8S1FJ28RonrgHWS1xBx fRq1Zoo0eYS8hprO5CZPE5beT7TJa8S1npqgug450HDy3Ffbeqqru4Z0tojq6s2BHsNijTkt+93z R1q8b/zGfE7Prn7m9+wRw+JufvzkdQnV9fp6BMmro+kEyCtCWmaqrp96NJZtbhrHYg3EVfe754+0 eP+46mr7O+2luubndfMzK6/b27VUV4S01MP1VFdXDXE2+TChBpv8UV0bTp8b7dmRvP686srXtuon Pa+HHBhxLNYaF2ucq7pq+cP4Jn7ERQ+8vOaprtjCPhsSmGMzkFdkEbzwMBn3XU99u5/qihR32u/n VVetuOtz83FpOdAOv0d1PRsS9H4Q4irii/GzDhDX0X5U11UfjVXH5KuuYR5iyGv9mpbdkIDF8b7/ K4UisFrSRImrCcvgSKyRuPJ+11ZdbQtsxIlxGYir7vuorquoruG8BklLtc9RXSXSwmKNTT6vto2x zaltf4cxdUpdb0CTd9UQuMnbb8j6MfuorrPy2lRz35HXxERnQ4Ic4spirXEJxFWf27HenMSV9/1a b8pGBjcHUfKKLAISbySvCHEtRSavyCLo8AHyGmo6BvKKLIIXPkhe3U3HQV7ziGvDyXNfbfnFnYbk FHcRr8SlFXd9bj4upMHLfs+GBO+6Ifuk6ppSrwPEdbTnqa5wvYaJa49hxzjyGuIhcF5Henb1gxBX ekxJyOttNiSQsXxcD2EwCaAdBYme+67CSFx5v7jqqvmtY/ZSXXW/e6quUF4DpKXZv0d1PRsSNJw+ N1Lb/g73Ul2169lVdaVzoPlJzWtHk4fyWrgeeW6MtNRT71Bd3/eNkp+HrK+6pvZsJ3Hl/ZOxMTtx eRg4Q/aQRUDijeQVIa6lYOT1bEjQ+7Ff0zrq1NmQgLLFirs272jfQ3XdMa8R4trs+aorQlp6+zqq q0ZayDHGvEbqdSlUfcshrgPekddaDvBjSkJef0Z1nZfXW25IIPgW46J+xIWprsgHQOKNxJX3vbfq GloIMHGtOF+TjzT4Hsfiu+I+SaEscnFXscR4FguTlpziLmI9ccFN3lfc29t9VFeNjNfDjVVXpilG m7w9B3qcii9R4tr8RPOaxBpzWvZ7NiT4BdUV7tkAce3H5KquUl6L9n8dgf2s6ioX+M1V10CDH+2L fPUwTJB3A4MQV953RHX1NkQaM+CcxZ32e1TXX/o2IVzcn8YocW3271Fdz6OxGk6fW+8jAx7Oa+N6 g/P6t1TXDTYk8MXV/v5/BHZP1VUr7vIYjLjWMe9QXX1qzqwG/8Iz5HVeDjgKTvcyftYKeY0S1wHr JK8h4vo0hvLHG1dyk9eKe3ub2+RpwtL7iTZ5jbjWUxNU1yEHGk6e+2pbT3V115DOFlFdJ9VrY07L vvd8NBbvG78xn9Ozqx9fDlSMbC+mvNav6R2PxmoY1j7kAI1hhg9+jDnwKOaCEyCvCGmZqbqeDQnu rz1/pMX7x1VX299pL9U1P6+bn1l53d6upboipKUerqe6umqIs8mHCTXY5I/q2nD63GjPjuT151VX vrZVP+l5PeTAiGOx1rhY41zVVcsf3reLuP5huB9xXRxBxHXEsfiLH4S48mOeNoG8IougwxNkD2nw LN5AXpFF8MLDZNx3PfXtfqorUtxpv59XXbXirs/Nx6XlQDv8HtX1bEjQ+0GIq4gvxs86QFxHe57q CtfrIHHt7bk35tI6VceAxLWOyVddwzzEkNf6NX3dhgTO2vbCCTtxBYmeu+AYiSvvd23V1bbARpwY l4G46r6P6rqK6hrOa5C0VPsc1VUiLSwWbvLGuIJNPl7b/g4nFPfngGiTd9UQuMnbb8j6MfuorrPy 2lRz35HXxERnQ4Ic4spirXEJxFWf27HenMSV9x1SXa9mZicuhuwhi4DEG8krQlxLkckrsgg6fIC8 hpqOgbwii+CFD5JXd9NxkNc84tpw8txXW35xpyE5xV3EK3FpxV2fm48LafCy37MhwbtuyD6puqbU 6wBxHe37q67a9QxjHHktrVN1DJzXkZ5d/SDElR5TEvL66zckIIGGGnLbiStI9Nx3FUbiyvvFVVfN bx2zl+qq+91TddWKoY+8rqq62m9g3I00ElegyYfigpv82ZDgipPnvtpi17Or6krnQPOTmteOJg/l tXA98twYaamn3qG6vu8bJT8PWV91Te3ZTuLK+4dV1+vrshMXQ/aQRUDijeQVIa6lYOT1bEjQ+7Ff 0zrq1NmQgLLFirs272jfQ3XdMa8R4trs+aorQlp6+zqqq0ZayDHGvEbqdSlUfcshrgPekddaDvBj SkJef0Z1nZfXP7UhAfF59TgG+2CJHvIBkHgjceV97626hhYCTFwrztfkIw2+x7H4rrjHGzxvf9qE 4q5iifEsFiYt3626asWqvd1HddXIeD3cWHVlmmK0yfsa1neorrEGXzEIcZXndvZsuLb1fmbVtmrf S3WFezZAXPsxuaqrlNeifciB3o9wTf1zYA0AP3HtTm6uugYa/Ghf5KuHYYK8GxiEuPK+I6qrtyHS mAHnLO6036O6/tK3CeHi/jRGiWuzf4/qeh6N1XD63HofGfBwXhvXG5zXv6W6fvGGBCROxNbXwzPY T6gg4tr7sf1hV1ZdfWrOrAb/wjPkdV4OOApO9zJ+1gp5jRLXAeskryHi+jSG8scQl0Za9Ln5uLTi 3t7mNnmasPR+ok1eI6711ATVlSzw36S65t6QvbCBnB7te6iuqfUarm29Hztx8RHXOuaorlPyesgB GsMMH/z4yKs7rx/3E9LgYi44N3LkJ684cdWw1R4jrra5aRyLNRBX3e+eP9Li/eOqq+3vtJfqmp/X zc+svG5v11JdEdJSD9dTp1w1xNnkw4QabPJHdW04fW60Z6+Z1+a4GLKXntdDDow4FmuNizXOVV21 /OF9Y8RVxA52y0YGjBPW2YVUIsSVH/O0CeQVWQQdniB7qXc7t5OzGvwLD5Nx3/XUt/uprkhxp/0u pLoyxV2fm49Ly4F2+D2q69mQoPeDEFcRX4yfdYC4jvY81RWu10Hi2ttzb8yldaqOAYlrHZOvuoZ5 iCGvtRzQxvzoo7EMfl8YeiMDZjBjv584GxJccWJcBuKq+z6q6yqqazivQdJS7XNUV6ngsFi4yRvj Cjb5eG37O5xQ3J8Dok3eVUPgJm+/IevH7KO6zsprU819R14TE50NCXKIK4u1xiUQV31ux3pzElfe N6a6AjyE2chgHMiMuZ/Y80daHT5AXkNNx0BekUXwwgfJq7vpOMhrHnFtOHnuqy2/uNOQnOIu4pW4 tOKuz83HhTR42e/ZkOBdN2SfVF1T6nWAuI72/VVX7XqGMY68ltapOgbO60jPrn4Q4kqPKQl5fTYk uOJUbFE/68f9BDuYdGYkriT25sdGXPyFsI7ZS3XV/e6pumrF0Edec0jLgIVJi/0Gxt1II3EFmnwo LrjJnw0Jrjh57qstdj27qq50DjQ/qXntaPJQXgvXI8+N1bZ66h2q6/u+UfLzkPVV19Se7SSuvP+P qa5X20MdyDo0kleEuJaCkdezIUHvB7zbEU98m+p6Ho3VMGJMRuIq+/69vEaIa7Pnq64Iaent66iu GmkhxxjzWsppLa5SqPqWQ1wHvCOvtRzgx5SEvP6M6jovr8+GBFeciB3swjXVNw91IeQS196Pjbis pbqGFgJMXCvO1+QjCdPjWHxX3OMNnrc/bUJxV7HEeBYLkxa7OuX+rCNxwU3eV9zb231UV42M18ON VVemKUabvK9hfYfqGmvwFYMQV3lunbzm1rbeT5S4itiXfS/VFe7ZAHHtx+Sqrhp3s+dA7yftmtqg BzmQdQaR14VU10CDH+2LfPUwTBBRckYciXUQV953RHX1NkQaM+CcxZ32e1TXX/o2IVzcn8YocW32 71Fdz6OxGk6fW+8jAx7O65wbc6Rnd3g4r9dQXc+GBJJfE3H9e9FPIeAX9lFdvWrOrAb/wjPkFUkY Eu8gr1HiWopOXqPEdcA6yWuIuD6NofwxxKWRFn1uPi6tuLe3uU2eJiy9n2iT14hrPTVBdSUL/Dep rrk3ZC9sIKdH+x6qa2q9hmtb78dOXHzEtY7JV12162HHwMS1YvzkdUJeDzlAY5jhgx8feZ3w7S9d q7kfcVEnzoYE/kUQSZiK8zX5CTI9ceIXH41F+177KzXb3CNGjAsmrhXjJ69e4tpjWKwjD5DahjR5 Vw2Bm/x71KmjujacPnfgJmGDvDbHxZC99LwecmDEsVhrXKxxruqq5Q/vGyOuInawu4nr31thJ64L qZxyt/NnE8grsgg6PEH2Uu92bidnNfgXHibjvuupb/dTXZHiTvtdSHVlirs+Nx+XlgPt8HtU17Mh Qe8HIa4ivhg/6wBxHe15qitcr4PEtbfn3phL61QdAxLXOuabVNeIOGPDaXENeEet5n3j3yilXZNM Xkvpf8R1B50NCa44MS4DcdV976m6asXQt7DXUF3DeQ2Slmqfo7pKBYfFwk3eGFewybvJFNzkjTUE aPKuGgI3efsNWT9mH9V1Vl6bau478lpv8jzWE5dCWkSsJy6G7M2qbe4a4olLIK763I715iSuvG9M dU3jIfacftxHvSZH7nbUP4xAXpFF0OED5DXUdAzkFVkEL3yQvLqbDkxesTtSee6rLb+405Cc4i7i lbg04qrPzceFNHjZ79mQ4F03ZJ9UXVPqdYC4jvb9VVfteoYxjryW1qk6Bs7rSM+ufhDiSo8pCXl9 NiS44lRscXzWvp79uIHOhgRXHG3rT8YLYcX5mvxvq67Ywo4TVzEupbiLWE9cgSYfigtu8mdDgitO nvtqi13PrqornQPNT2peO5o8lNfC9chzv7u2GeMCa1u1x27M/TxkfdU1tWc7iSvvfzvV9Yp9mMkr QlxLwcjrUhsSwA2+YnzEtfeTdrdDnPg21fU8GqthxJiMeS37/r28Rohrs+errghp6e3rqK4aaSHH wPXauN6Cea2RqQHvyGstB/gxJSGvP6O6zsvrsyHBFSdiB7uPuNbTpvypz4H1F8I+KBtxWUt1DS2E 7o+6nuqqESq5uE+6iy9ycVexxHgWC5MWuzrl/qwjccFN3lfc29t9VFeNjNfDOV+pjWPm35D9+Yk2 eV/D+g7VNdbgKwYhrvLcOnnNrW29n1nEtY7ZS3WFezZAXPsxuaqrxt3sOdD7SbsmYiJnXhM/4uIH DwHZF/f7vnqwzT1ixLgMxFX3ezYk8DdEGjPgnMWd9ntU11/6NiFc3J9GpMnHyeuaqut5NFbD6XPr xHXAw3mdc2OO9OwOD+f1Gqrr2ZBA8jtNdb2+jBsZEEHZ/rArq64+NWdWg3/hGfKKJAyJd5DXKHEt RSevUeI6YJ3kNURcn8ZQ/hji0kiLPjcfl1bc29vcJk8Tlt5PtMlrxLWemqO6hptpcXzOcA70fpAG r/uNqK6T6rUxp2Xfez4ai/e9r+qqXQ87BiauFeMnrxPyesgBGsMMH/z4yGskr3vcYHfWat73f6VQ BBZh4GdDgvtrzx9p8f5x1dX2d9pLdc3P6+ZnVl63t2uprghpqYfrqVOuGgI3+feoU0d1bTh97sBN wgZ5bY6LIXvpeT3kwIhjsda4WONc1VWrIbxvjLiK2MGeS1x5369rEjYyIAKKkldkEXR4guyl3u3c Ts5q8C88TMZ911Pf7qe6IsWd9htRp3qcilfi0oq7Pjcfl5YD7fB7VNezIUHvByGuIr4YP+sAcR3t eaorXK+DxLW3596YS+tUHQMS1zrmm1TXiDhjw2lxDXgnec2rbb2ftGsKkFfjNT3Uwbz9aROIq4at 9pjqaltgI06My0Bcdd97qq5aMfQt7DVU13Beg6Sl2ueorlLBYbFwkzfGFWzybjIFN3ljDQGavKuG wE3errb1Y/ZRXWfltZ+49n7S8trZ5PNqW48TsZ64mM9tVm1z1xBPXEAO9PY9VNc0HhIgrrx/8pqo H3E5/jACeUUWQYcPkNdQ0zGQV2QRvPBB8upuOjB5xe5I5bmvtvziTkNyiruIV+LSiKs+Nx8X0uBl v2dDgnfdkH1SdU2p1wHiOtr3V1216xnGOPJaWqfqGDivIz27+kGIKz2mJOT12ZDgilOxxfFZp/Ts 5oeJ6/5/YHHV1cbe91Jddb9Hdc0iLQMWJi32Gxh3I43EFWjyobjgJv+Dj8Z6Dog2edfnnNjktYbV j5mQ18EmjxDXdvg9qus3fqPku3mpGDUuQ06z2AvG19+an9Se7SSuvP99VdcQD6knH91AebKnHSCv Z0OC3k/a3Q5x4ttU1/NorIYRYzLmtez79/IaIa7Nnq+6IqSlt6+jumqkhRwD12vjegvmtUamBrwj r7Uc4MeUhLz+jOo6L6/PhgRXnIgd7D7iWk8n1+v+eh7FvEAB4lrHzFFdQwuh+xDWU101QiUX90l3 8UUu7iqWGM9iYdJiV6fcn3UkLrjJ+4p7e3tUVy0musDPvyH78xNt8r6G9R2qa6zBVwxCXOW5dfKa W9t6P7OIax2zl+oK92yAuPZjclVXKa9F+5ADvZ+0ayImmqi6Xm3Sj7guOIC8rqhOxROm4qLEVZ/b uUAdxJX3HVFdvQ2Rxgw4Z3Gn/R7V9Ze+TQgX96cRafJx8rqm6noejdVw+tw6cR3wcF7n3JgjPbvD w3m9hup6NiSQ/C6nul7HKztxAcS1jnmH6upTc2Y1+BeeIa9IwpB4B3mNEtdSdPIaJa4D1kleQ8T1 aQzljyEujbToc/NxacW9vc1t8jRh6f1Em7xGXOupOapruJkWx+cM50DvB2nwut+I6jqpXhtzWva9 56OxeN/7qq7a9bBjYOJaMX7yOiGvhxygMczwwY+PvEbyuscNdmet5n0rsfHktRR2Jy6BuPKBXO0x 4mqbm8axWANx1f3u+SMt3j+uutr+Tnuprvl53fxESQuLhYlrxfjJq5e49hgW68iDcIN/GqNN3lVD 4Cb/HnXqFx+NVUqcvLpvEjbIa3NcDNmbX9tGHIu1xsUa56quWg3hfWPEVcQO9lziyvsOqa7XF7ET l0BekUXQ4Qmyl3q3czs5q8G/8DAZjxT3/VRXpLjTfiPqVI9T8UpcWnHX5+bj0nKgHX6P6no2JOj9 IMRVxBfjZx0grqM9T3WF63WQuPb23BtzaZ2qY0DiWsd8k+oaEWdsOC2uAe8kr3m1rfeTdk0B8hol 46OdzIPLTlwCcRWdvewx1dW2wEacGBdMXCvO1+TXUF21Yuhb2GuorloxjBZ3Efuyf5Pq+rkfaZFY uMkbawjQ5F1NB27ydrWtH3NUVz9x7f2k5bWzyefVth4nYj1xMZ/brNrmriGeuIAc6O17qK5pPCRA XHn/sOp6tT9/xCWQV2QRdPgAeQ01HZi8/p7qejYk8MWlEVd9bj4upMHLfs+GBO+6Ifuk6ppSrwPE dbTvr7pq1zOMceS1tE7VMXBeR3p29YMQV3pMScjrsyHBFadii+OzTunZzY+9thliK+Xx/MP6C2Ed c1RX+9zxJr+q6oot7DhxFeNSiruI9cQVaPKhuOAm/4OPxnoOiDZ51+ec2OS1htWPmZDXwSaPENd2 +D2q6zd+o+S7eakYNS5DTrPYC8bX35qf1J7tJK68/31V1xAPiRHXv1f/HFg9kD975Cu1Saor3OAr xkdcez9pdzvEiW9TXc+jsRpGjMmY17Lv38trhLg2e77qipCW3r6O6qqRFnIMXK+N6y2Y1xqZGvCO vNZygB9TEvL6M6rrvLw+GxJccSJ2sPuIaz2dXK8N16OEVMr9R1w29j5HdQ0thO5DWE911YqhXNwn 3cUXubirWGI8i4VJi12d0shrlLh2WLjJ+4p7e3tUVy0muiDOvyH78xNt8r6G9R2qa6zBVwxCXOW5 nfUarm29n1nEtY7ZS3WFezZAXPsxuaqrlNeifciB3k/aNRETLai6Xm2P+wkBsJ46FU+YiosSV31u 5wJ1EFfed0R1jSTNXqrrjnnd3v7Otwnh4v40Ik0+Tl7XVKfOhgQNp8+tE9cBD+d1zo05Uts6/CZ5 HSOuzU9abSOJHo0TIHpcJHHt/aRcEzPJGzckMM59tf1XiraRQQO8Q3X1qTmzGvwLz5BXJGFIvIO8 RolrKTp5jRLXAeskryHi+jQi5PVsSNBw+twYca2n5qiu4WZaHJ8znAO9H6TB634jquukem3Madn3 no/G4n3vq7pq18OOgYlrxfjJ64S8HnKAxjDDBz8+8johr521mvetxGYkr856TW9k0ABziOs4Zn3V 1XdN+6iutoVwVFeUtLBYmLhWjJ+8eolrj2GxjjwIN/inMdrkXTUEbvLfr7rOyeuzIcEdp2KtcTFk b1Ztw+r1mqqrVkN43xhxFbGD3ae6fvLRWPzcV9uAY3biCn31cFTXWHHfT3VFijvtN6JO9TgVr8Sl FXd9bj4uLQfa4feormdDgt4PQlxFfDF+1gHiOtrzVFe4XgeJa2/PvTGX1qk6BiSudcw3qa4RccaG 0+Ia8E7ymlfbej9p1xQgr1EyPtrz6nUhd+LaTHXV/e6pumrF0Lew11BdtWIYLe4i9mV/h+q6jjol kRZ57gCZgpu8sYYATd7VdOAmb1fb+jFHdfUT195PWl47m3xebetxItYTF/O5RfOandKQ0yzWGhdA XPsxe6iuadcUIK68f1x1hXnIv+5HXJ9RXW3s/aiu6B2pPPfVll/caUhOcRfxSlwacdXn5uNCGrzs 92xI8K4bsk+qrghpeeEDxHW076+6atczjHHktUZc+TElIa8jPbv6QYgrPaYk5PXZkOCKU7HF8Vmn 9Ozmx9bfjLGRNpG4/r2eO3Ed1dUxd7zJr6q6Ygs7TlzFuJTiLmI9cQWafCguuMn/4KOxngOiTd71 OSc2ea1h9WMm5HWwySPEtR1+j+r6jd8o+W5eKkaNy5DTLPaC8fW35ie1ZzuJK+9/X9U1xEOGHFDi En2byGsp9SkE3oU9SXWFG3zF+Ihr78d+TeuoU2dDAsoWV10/ldey79/La4S4Nnu+6oqQlt6+juqq kRZyDFyvjestmNcamRrwjrzWcoAfUxLy+jOq67y8PhsSXHEidrD7iGs9PUd1DdWQwWYmrn8v7kdc lMdIgx+D0j+E9VRXrRjKxX3SXXyRi7uKJcazWJi02NUpjbxGiWuHhZu8r7i3t0d11WKiC+L8G7I/ P9Em72tY36G6xhp8xSDEVZ7bWa/h2tb7mUVc65i9VFe4ZwPEtR+Tq7pKeS3ahxzo/aRdEzHRqqqr aa3yecDsxBVo8KM9h7jqfs+GBOl3O8wkv/horNF+vk04GxK8R506GxI0nD633gwHPJzXOTfmKbWN nGjNvI4R1+YnrbaRRI/GCRA9LpK49n5SromZZIMNCWibfgND7MRFkD2kwbN4A3lFFsELz5BXJGFI vIO8RolrKTp5jSbMgHWS1xBxfRoR8no2JGg4fW6MuNZTc1TXcDMtjs8ZzoHeD9Lgdb8R1XVSvTbm tOx7z0dj8b73VV2162HHwMS1YvzkdUJeDzlAY5jhgw8feZ2Q185azftWYjOSV5iH2PLgwXwAEZl+ DCpKXHXfe/5Ii/ePq662hXBUV5S0sFiYuFaMn7x6iWuPYbGOPAgX96cx2uRdNQRu8vbr6cfso7rO yeuzIcEdp2KtcTFNflZtw+r1mqqrVkN43xHVNdKzR1xnCxBX3vcWquv19SA8HtU1Vtz3U12R4k77 jahTPU7FK3FpxV2fm49Ly4F2+D2q69mQoPdjz+vfUF3heh0krr0998ZcWqfqGJC41jHfpLpGxBkb TotrwDvJa15t6/2kXVOAvEbJ+Gj/mOp6fT0uls+qrrrfPVVXrRj6FvYaqqtWDKPFXcS+7O9QXddR pyTSIs8dIFNwkzfWEKDJu5oO3OSP6jotr4VmJc+NkZZ6aoLqqpAWEeuJi/nconnNTmnIaRZrjQsg rv2YPVTXtGsKEFfeP666wjwkngd//wcWv4u3sffNVddEohdd2PLcV1t+cachOcVdxCtxacRVn5uP C2nwst+zIcG7bsg+qboipOWFDxDX0b6/6qpdzzDGkdcaceXHlIS8Nq43Z16Hay6c12dDgitOxRbH Z53Ss5sfW38zxkbavMRVia33+yiWZBsnO6qrbd77a67qii3sOHEV41KKu4j1xBVo8qG44Cb/g4/G eg6INnnX55zY5LWG1Y+ZkNfBJo8Q13b4ParrN36j5Lt5qRg1LkNOs9gLxtffmp/Unu0krrz/fVXX EA8ZckCJS/Sdr7rebA/nQshTp6BFQE7wbapr8t0OM8nZkKBhxJiMeS373jOvQ4XwAo4S12bPV10R 0tLb11FdNdJCjoHrtXG9BfNaI1MDHs5r+w0MltefUV3n5fXZkOCKE7GD3Udc6+k5qmuohgy2qarr FUNvZMAMVuzl9iGsp7pqxVAu7pPu4otOXqMJM2BhMp5T3DX82ZCg4fS5A00nqclrOTCOmaC6Mk0x 2uR9Desdqqs3B4xxGXNa9ns2JPAS1zpmL9UV7tkAce3H5KquUl6L9iEHej9p10RMtKrqalqrwTwQ PmtlJy4ioChxZbEXP1Hiqs/tXKAO4sr7PqrrO79Ss809YsS4YOJaMb687v3Myut6uJ7qipCWVdWp syFBw+lz6zkw4OG8/rzqumNex4hr85NW20iiR+MEiB4XDW5huwAAGaBJREFUSVx7PynXxEzyxRsS KHOPuKeN2YmLCShKXpFF8MIz5BVJGBLvIK9R4lqKTl6jCTNgneQ1RFyfRoS8LrUhwfCZjTgR/xzv J669n2iT14hrPTVHdQ030+L4nOEc6P0gDV73G1ddfcV9D9U1tV7Dta33Yycua6iu2vWwY2DiWjF+ 8johrx21mvcdyQEjbrAree2s1bxvJTYjeYV5SDAPjJ81sRMXEVSUuLLYix9fk58g0xMnzoYEf6+9 VdcQmTI2+dy87v1EyTiJdeRBuLg/jdEm76ohcJO3X08/Zh/VdU5enw0J7jgVa42LafKzahtWr9dU XbUawvuOqK6Rnj3iOluAuPK+v1p1vb7uP+L6ftVVL+77qa5Icaf9RtSpHqfilbi04q7Pzcel5UA7 fIfq6s0BOq78HGh+kAav4c2fs5O40n6P6jqtXgeJa2/PvTGX1qk6BiSudcw3qa4RccaG0+Ia8E7y mlfbej9p1xQgr1EyPtq3U12vgOt/IchRXfWFvafqqhVD38JeQ3XVimG0uIvYl/0dqus66pRGXqPE lcTCTd7WdJAm72o6cJM/quu0vBaalTw3RlrqqQmqq0JaRKwnLjgHjHEZclrzG1NdjTWkyLEhxJX3 j6muadcUIK68f1x1hXlIyg1MjyNt7cRjCMjG3jdXXROJXnRhy3NfbfnFnYbkFHcRr8SlFXd9bj4u pMHLfvf8kRbvG1dd4ULITnQ2JPgG1VW7nmGMI6814sqPKQl5bVxvzrwO11w4r8+GBFecii2Ozzql Zzc/tv5mjI20eYmrEhvr10Rc/w6lH3H1J+OFsOJ8Tf63VVdsYceJqxiXUtxFrCeuQJMPxQU3+R98 NNZzQLTJuz7nxCavEdf+7YS8DjZ5hLi2w+9RXb/xGyXfzUvFqHEZiCuLvWB8/a35Se3ZTuLK+99X dQ3xkCEHlLhE3/mqq3ut0rX6wU8GN/iK8RHX3o99cecSV943TlxVPIMZcM7iTvvNKe4ivsSLuzbv aD+q64qPxmr2fNUVIS29fR3VVSMt5Bi4XhvXWzCvNTI14OG8Nq43OK8/o7rOy+vf25AAyp9ivCZm krMhQe/HSFz/3jA7cXUfwnqqq1YMEfKKJPN5NFYwLrjJ+4p7e3tUVy0muiBOUF2ZpphWCG+G6XkN 54AxLmNOy37PhgRe4lrH7KW6wj0bIK79mFzVVcpr0U6S199WXU1rNZgH7ryWyWspw0YGBuJKB9IH FSWu+tzOBeogrrzvo7q+8ys129wjRowLJq4V48vr3s+svK6H66muCGlZVZ06GxI0nD63ngMDHs7r z6uuO+Z1jLg2P2m1jSR6NE6A6HGRxLX3k3JNAeLK+8aJKz/31ZZPXGl7WHW9vi4E1kBekUXwwjPk FUkYEu8gr1HiWopOXqMJM2Cd5DVEXJ9GhLyeDQkaTp8bI6711BzVNdxMi+NzhnOg94M0eN1vXHX1 Ffc9VNfUeg3Xtt6Pnbisobpq18OOgYlrxfjJ64S8dtRq3nckB4y4wa7kdYC8hq7JSF5hHhLMA/dn bSev5V8pDxNxZZ1dHPia/ASZnjhxNiT4e+2tuobIlLHJ5+Z17ydKxkmsIw/Cxf1pjDZ5Vw2Bm7z9 evox+6iuc/L6BzckMDT5ObWt+plV27B6vabqqtUQ3ndEdY307BHX2QLElfd9VFdl3uuPuPZSXfXi vp/qihR32m9OcRfxSlxacdfn5uOyNfgRJ+Kf4xHiKs/tzGs4B5ofhLhqeHNeO4kr7feortPqdZC4 9vbcG3NpnapjlLw2kfmvUl0j4owNp8U14J3kNa+29X7SrilAXqNkfLT/jOp6fT3YD1hf2Huqrlox 9C3sNVRXrRhGi7uIfdnfobquo05p5DVKXEks3ORtTQdp8q6mAzf5o7pOy2uhWclzY6Slnpqjukr5 I2I9ccE5YIzLkNOa35jqaqwhRY4NIa68f0x1TbumAHHl/eOqK8xDUm5gehxpixPXv9eDPAstAnKS SaprItGLLmx57qstv7jTkJziLuKVuLTirs/Nx4U0eNnvnj/S4n3jqitcCNmJzoYE36C6atczjHHk tUZc+TElIa+N682Z1+GaC+f1jz0a62lEyGuUjNdTyfWaJHqG2Eibl7gqsbF+bcS1P3TXN8NGBreg fE3+t1VX1x8GJi05xV3EeuIKNPlQXHCT/8FHYz0HRJu863NObPIace3fTsjrYJNHiGs7/B7V9Ru/ UfLdvFSMGpeBuLLYC8bX35qf1J7tJK68/31V1xAPGXJAiUv0na+6uteqsVZrfqv9v8flQHqtqU6d R2P9vXKKu4gv8eKuzTvaj+q64qOxmj1fdUVIS29fR3XVSAs5xpjXCHEtRa5vCHEd8HBeG9cbnNef UV3n5fUiqitJ9GicANHjIolr7yflmphJzoYEvR+EuOp+XzhmI4NbUL4mn5MwJN5BXpFkPo/GCsYF N3lfcW9vj+qqxUQXxAmqK9MU0wrhzTA9r+EcMMZlzGnZ79mQwEtc65i9VFe4ZwPEtR+Tq7pKeS3a SfL626qr6bMO5oE7rx3k1Vmv6f8D++cgSly1QHr7UV1/8dFYoz1PdZX9HtX1XaRlVXXqbEjQcPrc eg4MeDivP6+67pjXMeLa/KTVNpLo0TgBosdFEtfeT8o1BYgr7xsnrvzcV5tXdY307N4PQlw138zn TRHYsyHBFSfPfbX9juqqFXd9bj4ujbi2w9wmry1seW6MuNZTc1TXcDMtjs8ZzoHeD9Lgdb9x1dVX 3PdQXVPrNVzbej924rKG6qpdDzsGJq4V4yevE/LaUat535EcMOIGu5LXAfIauiYjeYV5SDAP3J+1 g7wC9fpOYPf8kRbvH1ddbQvhqK5Tvnq4nYwR14rxk9ccdUojryuqU66mAzd5+/X0Y/ZRXefk9dmQ 4I4TsZ64mCY/q7Zh9XpN1VWrIbzviOoa6dkjrrMFiCvv+6iutnnvdmGtVvAfgT0bElxx8txXW35x p/3mFHcRr8SlFXd9bj4uW4MfcSL+OR4hrvLczryGc6D5QYirhjfntZO40n5zVFekEL7wAeI62vNU V4S0lBInrr0998ZcWqfqGCWvTWT+q1TXz/1Ia8A7yWtebev9pF1TgLxGyfho31R1JXOAjy3MQ3rg o+yqumrFULwmgLQ0+z5fqYnYl/0dqus66pRGXqPElcTCTd7WdJAm72o6cJM/quu0vBaalTw3Rlrq qTmqq5Q/ItYTF5wDxrgMOa35jamuxhpS5NgQ4sr7x1TXtGsKEFfeP666wjwk5Qamx5G2oa4pcYl+ zeS1FOkpBPQfdZLqmkj0ogtbnvtqyy/uNCSnuIt4JS6tuOtz83EhDV72u+ePtHjfuOoKF0J2ot9T XUPrDSauFeMnr/g6Jcc48lojrvyYkpDXxvXmzOtwzYXzepFHYxEnYvX6s6prfs9ufmz9zRgbafMS VyU21u9yquvl9Z+wE1eQuPZjvkN1dS1OmLTkFHcR64kLbvILqVPkBLg6pV1PPdxLddWK1RTVlSzw E/I62OTdee1o8lBeC9cjz+1sOnBtM8YF1rZqj92Y2wlRw6hxGYgri71gfP2t+Unt2U7iyvvfV3UN 8ZAhB5S4RN/5qqt7rRprtea32r3k9TWe2Ikr2OB7ey5x5X3jxFXFM5gB5yzutN+c4i7iS7y4a/OO 9qO6rvhorGbPV10R0tLbV1Vd/YR/FnEtRa5vCHEd8HBeG9cbnNefUV3n5fUiqitJ9GicANHjIolr 7yflmphJzoYEvR+EuOp+w8T1b+7bTlz/6MFIwpB4B3lFknlH1RUp7hr+bEjQcPrcgaaT1OS1HBjH TFBdmQKSVghvhul5DeeAMS5jTst+z4YEXuJax+yluurXtKfqKuW1aCfJ62+rrqbPOpgH7rx2kFeo Xivk9WJ+iMRVC6S3H9X1Fx+NNdrzVFfZ71Fd30VaVlWnzoYEDafPrefAgIfz+vOq6455HSOuzU9a bSOJHo0TIHpcJHHt/aRcU4C48r5x4srPfbV5VddIz+79IMRV842oroT5wZJXJGFIvIO8RolrKTp5 he92mIl2VF214q7PzcelEdd2mNvktYUtz40R13pqjuoabqbF8Tk7GzztN6K6TriLJyfAb8hIvJG4 yr73fDQW73tf1VW7HnYMTFwrxk9eJ+S1o1bzviM5YMQNdiWvA+Q1dE1G8grzkGAeuD9rB3mF6nWs Zz+sA2/BjA5YvIO48v5x1dW2EI7qOuWrh9vJGHGtGD95zVGnNPK6ojrlajpwk7dfTz9mH9V1Tl6f DQnuOBHriYtpirNqG1av11RdtRrC+46orpGePeI6W4C48r6P6mqb925PVV2vr4dnsL/pOMhrlLiW gpFXV9Nxktcc4trjVLwSl1bc9bn5uGwNfsSJ+Od4hLjKczvzGs6B5gchrhrenNdO4kr7zVFdkUL4 wgeI62jPU10R0lJKnLj29twbc2mdqmOUvDaR+beorr4eF8/rsyHBFadii+OaAuQ1SsZH+4R6ndKz ez96fxsx8txXm5e49n4M1/RQB46T5aquWjEULwIgLc2+z1dqIvZlf4fquo46pZHXKHElsXCTtzUd pMm7mk5ik9caVj/mqK4IaZHnxkhLPTVHddVI4hq1zRiXIac1vzHV1VhDihwbQlx5/5jqmnZNAeLK +8dVV5iHpNzA9DjSNtQ1JS7R7xzV9WbjNzIYAeuoU9+/IUHy3Q47QSRpIqprTM1RYwpeT29fJ68R 4trsR3XNIC3kGJi4VoyfvOLrlBzjyGuNuPJjSkJeG9ebM69DOXA5Gc/rRR6NRZyI1evPqq75Pbv5 sfU3Y2ykzUtcldhYv17iqsTG+p2uul4x9EYGI+A7VFfX4oRJS05xF7GeuOAmv5A6RU6Aq1Pa9dTD vVRXrWFNUV3Jgjghr4NN3p3XjiYP5bVwPfLc8uc8YOHaZowLrG3VHrsxtxOihlHjMhBXFnvB+Ppb 86PWkOJYb07iyvvfV3UN8ZAhB5S4RN/5qqt7rRprtea32t+hunY+hJ24xsG0IwdxJfEXPwhxVfEM ZsA5izvtd33V1Vfgj+q64qOxmj1fdUVIS29fVXX1E/5ZxLUUub4hxHXAw3ltXG9wXn9GdZ2X14uo riTRo3ECRI+LJK69n5RrYiY5GxL0fhDiqvuNE1d9bhFH7MRFDGQdOchrlLiWopPXaMIMWCd5DRHX p1FrptGE6bDJTV4r7u3tUV21mOgCP0F1ZQpIWiG8GabnNZwDxriMOS37PRsSeIlrHbOX6qpf056q q5TXol2pbWnXRJLxNVVX02cdzAN3XjvIK1SvFfKaUK8f9xPSYPLEUV3/Xmt/pWabe8SIccHEtWLU v2GQtPT271BdEdKyqjp1NiRoOH1uPQcGPJzXn1ddd8zrGHFtftJqG0n0aJwA0eMiiWvvJ+WaAsSV 940TV37uq82rukZ6du8HIa6a74mPxrLXkH/dj7h+Q3VFSAvt9/Oqq1bc9bn5uDTi2g5zm7y2sOW5 MeJaT71DdX3PDRmqTiENXsQX43oL5PRo30N1RRr8gIdrW+/HTlzWUF2162HHwMS1YvzkdUJeO2o1 7zuSA0bcYFfyOkBeo2R8tO+humo9e2q9TunZPYbE1RPjRgYK4Pn2c6qrbSEc1XXKVw+3kzHiWjF+ 8pqjTiE3MOHi/jRGm7yr6cBN3n49/Zh9VNc5eX02JLjjRKwnLqYpzqptWL1eU3XVagjvO6K6Rnr2 iOtsAeLK+z6qq23eu30J1fX66jcyYB05yGuUuJaCkdcoca2nJqiuhoUt4pW4tOKuz83HZWvwI07E P8cjxFWe20mmnDcw4bwGb2Dief17j8Ya7XmqK0JaSokT196ee2MurVN1jJLXJjL/FtXVdwMTz+uz IcEVp2KL45pSenbzY69tdGxwvU7p2b0fvb+NGHnuq81LXHs/KTyEnoT7Edd4YtVHYzX7Pl+pidiX /R2q6zrqlEZeo8SVxMJN3tZ0kCbvajqJTV5rWP2Yo7oipEWeGyMt9dQc1VUjiWvUNmNchpzW/MZU V2MNKXJsCHHl/WOqa9o1BYgr7x9XXWEeknID0+NI21DXlLhEv3NUV9da5fOA2YkrkehFF7Y899W2 suqafLfDTpB8t0OcdBGqmx81puD19PZ9VFe4ELIT/Z7qqhVCcgxMXCvGT17xdUqOceS1Rlz5MSUh r43rzZnXoRy4nIzn9SKPxiJOxOr1Z1XX/J7d/Nj6mzE20uYlrkpsrF8vcVViY/2uqbre4iJ24vrH DlYCGYPykdf3qFNnQ4KF1ClyAlyd0q6nHu6lumoNa4rqShbECXkdbPLuvHY0eSiv4dpmjAuubb2f WbWt2mM35nZC1DBqXAbiymIvGF9/a37UGlIc6y2FuDaMPQd6P2nXlEZcmx9bDihxib7zVVf3WjXW as1vtb9DdU25gXlcrdJAJZg+KIS4qngGM+CcxZ32u77q6ivwR3Vd8dFYzZ6vuiKkpbevqrr6Cf8s 4lqKXN8Q4jrg4bw2rjc4rz+jus7L60VUV7LB0zgBosdFEtfeT8o1MZN814YEEaKn4BzEVfcbJ676 3Eac7wbmMYB2/JHWgHWS1xBxfRpddxWD7TOqq1bc29uNVVffQojnNVngJ6iuTAFJK4Q3w/S8hnPA GJcxp2W/e/5Ii/eN35ibyPxmqqt+TUd1jeV1jxvszlot+56rupo+62AeuPPaQV6hep1GxlNU1+vw x+WPelTXcvMTLe4i9mXfT3WV/R7V9V1fFa+qTp0NCRpOn1vPgQEP5/XnVde357WxyUO1jTUe1TWb uPK+ceLKz321xVRXX8/u/SDEVfO94KOx1LgukL8fce2nuiKkhfb7edVVK+763HxcWnFvh7lNXlvY 8twYca2n3qG6vueGDFWnEOIq4otxvQVyerQf1fU8Gqti1DGGvNav6WxIMCWv46Tl9tLJ+GjfQ3XV evbUep3Ss3sMicN69mMaeV310Vi0771VV+l6WKyxycvXdDYkyLohG7Bwk7dfTz9mH9V1Tl6fDQnu OBHriYtpirNqG1av48RVn9ux3pzElfcdUV0jPXvEdbYAceV9H9XVNu/dvp/qyvh90KdZwEKqa2Ah 5BDXHqfilbi04q7Pzcdla/AjTsQ/xyPEVZ7bSaacNzDhvAZvYOJ5/XuPxhrteaorQlpKiRPX3n5U V5S40mNKQl6fDQmuOBVbHNeU0rObH3tto2OD63VKz+796P1txMhzX21e4tr7SeEhzCTB+jYSWK0Y ihcBkJZmz1ddpUUgxgWSlmp/h+q6jjqlkdcocSWxcJO3NR2kybuaTmKT1xpWP2Zj1dXR5KG8FpqV PDdGWuqpOaqrRhLXqG3GuAw5rflFVFcb0e8xbFxO4sr7x1TXtGsKEFfeP666wjwk5Qamx5G2oV8r cYl+56iurrWaUtuan3/qTlyXgKIL2xJMlLjWU+9QXZPvdtgJku92iJMuQnXzo8YUvJ7evo/qChdC dqLfU121QkiOMeY1QlpKoeobvk7JMY681ogrP6Yk5LVxvTnzOpQDl5PxvF7k0VjEiVi9/qzqmt+z mx9bfzPGRtq8xFWJjfXrJa5KbKzfNVVX5CkTFxuzE9ctKB95fY86dTYk+H7VVbueeriX6qo1rCmq K1kQJ+R1sMm789p4PbLfsyHBO79RshOihlHjMhBXFnvB+Ppb86PWkOJYbynEtWHsOdD7SbumZNLC 2occUOISfeerru61mlLb/uzvUF1zb2Cc9ZrYiesSFEJcVTyDGXDO4k77XV919RX4o7qu+GisZs9X XRHS0ttXVV39hN91o3DxY2rSwbzWms6Ah/PauN7gvP6M6jovrxdRXckGT+MEiB4XSVx7PynXxExy NiRQcA7iqvuNE1d9biMu+QaGsd3/D6xxcSrkNZowA9ZJXkPE9Wl03VUMts+orlpxb29zm7x2PfLc GHGtp97/lZqGjxPXiksrhDfD9LyGc8AYlzGnZb97/kiL943fmJvI/Gaqq35NR3WN5XWPG+zJpIW1 p9Q2GtPZg3ngzmsHeYXqdRoZt19POzWhXv/rCOxRXd/5lZpt7hEjxgUT14pR/4aTmry2EFZUXRHS sqo6dTYkaDh9bj0HBjyc159XXd+e18YmD9U21nhU12ziyvvGiSs/99UWU119Pbv3gxBXzfeOj8aS fQtrteXBo5j/MAp5TSGuxIkdVVetuOtz83Fpxb0dTlBdgYWAENd66h2q63tuyFB1CiGuIr4Y11sg p0f7UV3Po7EqRh1jyGv9ms6GBFPyOo206GR8tO+humo9e2q9TunZPYbEpfTs6kfLgctb7UdcGHFt 9qO6Tvnq4XYyRlwrxk9ec9Qp5AYmXNyfxmiTdzUduMnbr6cfs4/qOievz4YEd5yI9cTFNMVZtQ2r 12dDgljPHnGdLUBced9HdbXNe7fvp7qG1yqdB9yPuJ6DAfIaJa711ATV1bCwRbwSl1bc9bn5uGwN fsSJ+Od4hLjKczvJlPMGJlTcn0akIcbz+vcejTXa81RXhLSUEieuvf2orihxpceUhLw+GxJccSq2 OK4ppWc3P07SYpz7avNfT7rqSuaAITbS5iWuvZ8UHsJMMkt1ZT5reieuVVVXaRGIccGkxRhXoMmH 4oKb/NmQ4IqT577afkt1fWteO5o8lNdCs5LnxkhLPTVHddVIInIDk5cDxrgMOa35RVRXG9HvMWxc TuLK+8dU17RrChBX3j+uusI8JOUGpseRtqFfK3GJfueorq61mlLbmh/gBub/AUOATUSc7JqnAAAA AElFTkSuQmCC "
       width="688"
       height="282"
       transform="matrix(1.3640716,0,0,1.2440305,47.616493,224.95391)"
       id="image3805"
       style="fill:url(#linearGradient3784);fill-opacity:1;filter:url(#filter3798)" />
  </g>
</svg>
